﻿{
	"Total": 1000,
	"Page": 0,
	"PageSize":  10,
	"Items": [
		{
			"Title": "lorem ipsum",
			"Description": "Occupy bitters ethical paleo, taxidermy food truck kale chips vegan farm-to-table. Shabby chic fap roof party, whatever banh mi direct trade craft beer mlkshk.",
			"Location": "City, St",
			"Rent": "0.00",
			"Utilities": "0.00",
			"Lease": "6 months",
			"Available": "Jan 1",
			"Gender": "Male",
			"Age": "40",
			"Deposit": "0.00",
			"Pets": ["Dog"]
		},
		{
			"Title": "lorem ipsum",
			"Description": "Occupy bitters ethical paleo, taxidermy food truck kale chips vegan farm-to-table. Shabby chic fap roof party, whatever banh mi direct trade craft beer mlkshk.",
			"Location": "City, St",
			"Rent": "0.00",
			"Utilities": "0.00",
			"Lease": "6 months",
			"Available": "Jan 1",
			"Gender": "Male",
			"Age": "40",
			"Deposit": "0.00"
		},
		{
			"Title": "lorem ipsum",
			"Description": "Occupy bitters ethical paleo, taxidermy food truck kale chips vegan farm-to-table. Shabby chic fap roof party, whatever banh mi direct trade craft beer mlkshk.",
			"Location": "City, St",
			"Rent": "0.00",
			"Utilities": "0.00",
			"Lease": "6 months",
			"Available": "Jan 1",
			"Gender": "Male",
			"Age": "40",
			"Deposit": "0.00"
		},
		{
			"Title": "lorem ipsum",
			"Description": "Occupy bitters ethical paleo, taxidermy food truck kale chips vegan farm-to-table. Shabby chic fap roof party, whatever banh mi direct trade craft beer mlkshk.",
			"Location": "City, St",
			"Rent": "0.00",
			"Utilities": "0.00",
			"Lease": "6 months",
			"Available": "Jan 1",
			"Gender": "Male",
			"Age": "40",
			"Deposit": "0.00"
		},
		{
			"Title": "lorem ipsum",
			"Description": "Occupy bitters ethical paleo, taxidermy food truck kale chips vegan farm-to-table. Shabby chic fap roof party, whatever banh mi direct trade craft beer mlkshk.",
			"Location": "City, St",
			"Rent": "0.00",
			"Utilities": "0.00",
			"Lease": "6 months",
			"Available": "Jan 1",
			"Gender": "Male",
			"Age": "40",
			"Deposit": "0.00"
		},		
		{
			"Title": "lorem ipsum",
			"Description": "Occupy bitters ethical paleo, taxidermy food truck kale chips vegan farm-to-table. Shabby chic fap roof party, whatever banh mi direct trade craft beer mlkshk.",
			"Location": "City, St",
			"Rent": "0.00",
			"Utilities": "0.00",
			"Lease": "6 months",
			"Available": "Jan 1",
			"Gender": "Male",
			"Age": "40",
			"Deposit": "0.00"
		}
	]
}
